{
	"2009":{
			"Seluruh":"62458",
			"Total":"62458"
		},
	"2010":{
			"Seluruh":"58308",
			"Total":"58308"
		},
	"2011":{
			"Seluruh":"54816",
			"Total":"54816"
		},
	"2012":{
			"Seluruh":"51006",
			"Total":"51006"
		},
	"2014":{
			"Seluruh":"47562",
			"Total":"47562"
		},
	"2015":{
			"Seluruh":"63566",
			"Total":"63566"
		},
	"2016":{
			"Seluruh":"40473",
			"Total":"40473"
		},
	"2017":{
			"Seluruh":"78743",
			"Total":"78743"
		}
}