{
	"2005":{
			"0":"36",
			"1":"0"
		},
	"2006":{
			"0":"56",
			"1":"0"
		},
	"2007":{
			"0":"52",
			"1":"0"
		},
	"2008":{
			"0":"94",
			"1":"0"
		},
	"2009":{
			"0":"52",
			"1":"0"
		},
	"2010":{
			"0":"55",
			"1":"0"
		},
	"2011":{
			"0":"55",
			"1":"0"
		},
	"2012":{
			"0":"99",
			"1":"0"
		},
	"2013":{
			"0":"51",
			"1":"0"
		},
	"2014":{
			"0":"26",
			"1":"30"
		},
	"2015":{
			"0":"8",
			"1":"86"
		},
	"2016":{
			"0":"70",
			"1":"25"
		},
	"2017":{
			"0":"0",
			"1":"0"
		},
	"2018":{
			"0":"0",
			"1":"0"
		}
}