{  
   "2017":{  
      "null":5,
      "000":1387,
      "100":929,
      "200":1069,
      "300":2930,
      "400":577,
      "500":1108,
      "600":3285,
      "700":1161,
      "800":3875,
      "900":702
   }
}